Transcript.java,transcriptAnalyzer.Transcript,org.pitest.mutationtest.engine.gregor.mutators.ConditionalsBoundaryMutator,<init>,39,KILLED,transcriptAnalyzer.TestTranscript._
Transcript.java,transcriptAnalyzer.Transcript,org.pitest.mutationtest.engine.gregor.mutators.ConstructorCallMutator,<init>,36,KILLED,transcriptAnalyzer.TestTranscript._
Transcript.java,transcriptAnalyzer.Transcript,org.pitest.mutationtest.engine.gregor.mutators.ConstructorCallMutator,<init>,40,KILLED,transcriptAnalyzer.TestTranscript._
Transcript.java,transcriptAnalyzer.Transcript,org.pitest.mutationtest.engine.gregor.mutators.ConstructorCallMutator,<init>,44,KILLED,transcriptAnalyzer.TestTranscript._
Transcript.java,transcriptAnalyzer.Transcript,org.pitest.mutationtest.engine.gregor.mutators.InlineConstantMutator,<init>,39,SURVIVED,none
Transcript.java,transcriptAnalyzer.Transcript,org.pitest.mutationtest.engine.gregor.mutators.NegateConditionalsMutator,<init>,35,SURVIVED,none
Transcript.java,transcriptAnalyzer.Transcript,org.pitest.mutationtest.engine.gregor.mutators.NegateConditionalsMutator,<init>,39,SURVIVED,none
Transcript.java,transcriptAnalyzer.Transcript,org.pitest.mutationtest.engine.gregor.mutators.NonVoidMethodCallMutator,<init>,39,SURVIVED,none
Transcript.java,transcriptAnalyzer.Transcript,org.pitest.mutationtest.engine.gregor.mutators.RemoveConditionalMutator_EQUAL_ELSE,<init>,35,KILLED,transcriptAnalyzer.TestTranscript._
Transcript.java,transcriptAnalyzer.Transcript,org.pitest.mutationtest.engine.gregor.mutators.RemoveConditionalMutator_EQUAL_IF,<init>,35,SURVIVED,none
Transcript.java,transcriptAnalyzer.Transcript,org.pitest.mutationtest.engine.gregor.mutators.RemoveConditionalMutator_ORDER_ELSE,<init>,39,KILLED,transcriptAnalyzer.TestTranscript._
Transcript.java,transcriptAnalyzer.Transcript,org.pitest.mutationtest.engine.gregor.mutators.RemoveConditionalMutator_ORDER_IF,<init>,39,SURVIVED,none
Transcript.java,transcriptAnalyzer.Transcript,org.pitest.mutationtest.engine.gregor.mutators.NonVoidMethodCallMutator,addTerm,55,KILLED,transcriptAnalyzer.TestTranscript._
Transcript.java,transcriptAnalyzer.Transcript,org.pitest.mutationtest.engine.gregor.mutators.ReturnValsMutator,addTerm,55,SURVIVED,none
Transcript.java,transcriptAnalyzer.Transcript,org.pitest.mutationtest.engine.gregor.mutators.InlineConstantMutator,calculateGPA,113,KILLED,transcriptAnalyzer.TestTranscript._
Transcript.java,transcriptAnalyzer.Transcript,org.pitest.mutationtest.engine.gregor.mutators.InlineConstantMutator,calculateGPA,114,KILLED,transcriptAnalyzer.TestTranscript._
Transcript.java,transcriptAnalyzer.Transcript,org.pitest.mutationtest.engine.gregor.mutators.MathMutator,calculateGPA,118,KILLED,transcriptAnalyzer.TestTranscript._
Transcript.java,transcriptAnalyzer.Transcript,org.pitest.mutationtest.engine.gregor.mutators.MathMutator,calculateGPA,119,KILLED,transcriptAnalyzer.TestTranscript._
Transcript.java,transcriptAnalyzer.Transcript,org.pitest.mutationtest.engine.gregor.mutators.MathMutator,calculateGPA,122,KILLED,transcriptAnalyzer.TestTranscript._
Transcript.java,transcriptAnalyzer.Transcript,org.pitest.mutationtest.engine.gregor.mutators.NegateConditionalsMutator,calculateGPA,117,KILLED,transcriptAnalyzer.TestTranscript._
Transcript.java,transcriptAnalyzer.Transcript,org.pitest.mutationtest.engine.gregor.mutators.NegateConditionalsMutator,calculateGPA,116,KILLED,transcriptAnalyzer.TestTranscript._
Transcript.java,transcriptAnalyzer.Transcript,org.pitest.mutationtest.engine.gregor.mutators.NonVoidMethodCallMutator,calculateGPA,116,KILLED,transcriptAnalyzer.TestTranscript._
Transcript.java,transcriptAnalyzer.Transcript,org.pitest.mutationtest.engine.gregor.mutators.NonVoidMethodCallMutator,calculateGPA,116,KILLED,transcriptAnalyzer.TestTranscript._
Transcript.java,transcriptAnalyzer.Transcript,org.pitest.mutationtest.engine.gregor.mutators.NonVoidMethodCallMutator,calculateGPA,117,KILLED,transcriptAnalyzer.TestTranscript._
Transcript.java,transcriptAnalyzer.Transcript,org.pitest.mutationtest.engine.gregor.mutators.NonVoidMethodCallMutator,calculateGPA,117,KILLED,transcriptAnalyzer.TestTranscript._
Transcript.java,transcriptAnalyzer.Transcript,org.pitest.mutationtest.engine.gregor.mutators.NonVoidMethodCallMutator,calculateGPA,117,KILLED,transcriptAnalyzer.TestTranscript._
Transcript.java,transcriptAnalyzer.Transcript,org.pitest.mutationtest.engine.gregor.mutators.NonVoidMethodCallMutator,calculateGPA,118,KILLED,transcriptAnalyzer.TestTranscript._
Transcript.java,transcriptAnalyzer.Transcript,org.pitest.mutationtest.engine.gregor.mutators.NonVoidMethodCallMutator,calculateGPA,119,KILLED,transcriptAnalyzer.TestTranscript._
Transcript.java,transcriptAnalyzer.Transcript,org.pitest.mutationtest.engine.gregor.mutators.NonVoidMethodCallMutator,calculateGPA,117,KILLED,transcriptAnalyzer.TestTranscript._
Transcript.java,transcriptAnalyzer.Transcript,org.pitest.mutationtest.engine.gregor.mutators.NonVoidMethodCallMutator,calculateGPA,116,KILLED,transcriptAnalyzer.TestTranscript._
Transcript.java,transcriptAnalyzer.Transcript,org.pitest.mutationtest.engine.gregor.mutators.RemoveConditionalMutator_EQUAL_ELSE,calculateGPA,117,KILLED,transcriptAnalyzer.TestTranscript._
Transcript.java,transcriptAnalyzer.Transcript,org.pitest.mutationtest.engine.gregor.mutators.RemoveConditionalMutator_EQUAL_ELSE,calculateGPA,116,KILLED,transcriptAnalyzer.TestTranscript._
Transcript.java,transcriptAnalyzer.Transcript,org.pitest.mutationtest.engine.gregor.mutators.RemoveConditionalMutator_EQUAL_IF,calculateGPA,117,KILLED,transcriptAnalyzer.TestTranscript._
Transcript.java,transcriptAnalyzer.Transcript,org.pitest.mutationtest.engine.gregor.mutators.RemoveConditionalMutator_EQUAL_IF,calculateGPA,116,KILLED,transcriptAnalyzer.TestTranscript._
Transcript.java,transcriptAnalyzer.Transcript,org.pitest.mutationtest.engine.gregor.mutators.ReturnValsMutator,calculateGPA,123,KILLED,transcriptAnalyzer.TestTranscript._
Transcript.java,transcriptAnalyzer.Transcript,org.pitest.mutationtest.engine.gregor.mutators.ConditionalsBoundaryMutator,isDeansList,86,SURVIVED,none
Transcript.java,transcriptAnalyzer.Transcript,org.pitest.mutationtest.engine.gregor.mutators.ConditionalsBoundaryMutator,isDeansList,88,SURVIVED,none
Transcript.java,transcriptAnalyzer.Transcript,org.pitest.mutationtest.engine.gregor.mutators.InlineConstantMutator,isDeansList,86,KILLED,transcriptAnalyzer.TestTranscript._
Transcript.java,transcriptAnalyzer.Transcript,org.pitest.mutationtest.engine.gregor.mutators.InlineConstantMutator,isDeansList,87,KILLED,transcriptAnalyzer.TestTranscript._
Transcript.java,transcriptAnalyzer.Transcript,org.pitest.mutationtest.engine.gregor.mutators.InlineConstantMutator,isDeansList,88,KILLED,transcriptAnalyzer.TestTranscript._
Transcript.java,transcriptAnalyzer.Transcript,org.pitest.mutationtest.engine.gregor.mutators.InlineConstantMutator,isDeansList,89,KILLED,transcriptAnalyzer.TestTranscript._
Transcript.java,transcriptAnalyzer.Transcript,org.pitest.mutationtest.engine.gregor.mutators.InlineConstantMutator,isDeansList,91,KILLED,transcriptAnalyzer.TestTranscript._
Transcript.java,transcriptAnalyzer.Transcript,org.pitest.mutationtest.engine.gregor.mutators.NegateConditionalsMutator,isDeansList,86,KILLED,transcriptAnalyzer.TestTranscript._
Transcript.java,transcriptAnalyzer.Transcript,org.pitest.mutationtest.engine.gregor.mutators.NegateConditionalsMutator,isDeansList,88,KILLED,transcriptAnalyzer.TestTranscript._
Transcript.java,transcriptAnalyzer.Transcript,org.pitest.mutationtest.engine.gregor.mutators.NonVoidMethodCallMutator,isDeansList,84,KILLED,transcriptAnalyzer.TestTranscript._
Transcript.java,transcriptAnalyzer.Transcript,org.pitest.mutationtest.engine.gregor.mutators.RemoveConditionalMutator_ORDER_ELSE,isDeansList,86,KILLED,transcriptAnalyzer.TestTranscript._
Transcript.java,transcriptAnalyzer.Transcript,org.pitest.mutationtest.engine.gregor.mutators.RemoveConditionalMutator_ORDER_ELSE,isDeansList,88,KILLED,transcriptAnalyzer.TestTranscript._
Transcript.java,transcriptAnalyzer.Transcript,org.pitest.mutationtest.engine.gregor.mutators.RemoveConditionalMutator_ORDER_IF,isDeansList,86,KILLED,transcriptAnalyzer.TestTranscript._
Transcript.java,transcriptAnalyzer.Transcript,org.pitest.mutationtest.engine.gregor.mutators.RemoveConditionalMutator_ORDER_IF,isDeansList,88,KILLED,transcriptAnalyzer.TestTranscript._
Transcript.java,transcriptAnalyzer.Transcript,org.pitest.mutationtest.engine.gregor.mutators.ReturnValsMutator,isDeansList,93,KILLED,transcriptAnalyzer.TestTranscript._
Transcript.java,transcriptAnalyzer.Transcript,org.pitest.mutationtest.engine.gregor.mutators.ConditionalsBoundaryMutator,isHighHonors,103,SURVIVED,none
Transcript.java,transcriptAnalyzer.Transcript,org.pitest.mutationtest.engine.gregor.mutators.InlineConstantMutator,isHighHonors,103,KILLED,transcriptAnalyzer.TestTranscript._
Transcript.java,transcriptAnalyzer.Transcript,org.pitest.mutationtest.engine.gregor.mutators.InlineConstantMutator,isHighHonors,103,KILLED,transcriptAnalyzer.TestTranscript._
Transcript.java,transcriptAnalyzer.Transcript,org.pitest.mutationtest.engine.gregor.mutators.InlineConstantMutator,isHighHonors,103,KILLED,transcriptAnalyzer.TestTranscript._
Transcript.java,transcriptAnalyzer.Transcript,org.pitest.mutationtest.engine.gregor.mutators.NegateConditionalsMutator,isHighHonors,103,KILLED,transcriptAnalyzer.TestTranscript._
Transcript.java,transcriptAnalyzer.Transcript,org.pitest.mutationtest.engine.gregor.mutators.NonVoidMethodCallMutator,isHighHonors,103,KILLED,transcriptAnalyzer.TestTranscript._
Transcript.java,transcriptAnalyzer.Transcript,org.pitest.mutationtest.engine.gregor.mutators.RemoveConditionalMutator_ORDER_ELSE,isHighHonors,103,KILLED,transcriptAnalyzer.TestTranscript._
Transcript.java,transcriptAnalyzer.Transcript,org.pitest.mutationtest.engine.gregor.mutators.RemoveConditionalMutator_ORDER_IF,isHighHonors,103,KILLED,transcriptAnalyzer.TestTranscript._
Transcript.java,transcriptAnalyzer.Transcript,org.pitest.mutationtest.engine.gregor.mutators.ReturnValsMutator,isHighHonors,103,KILLED,transcriptAnalyzer.TestTranscript._
Transcript.java,transcriptAnalyzer.Transcript,org.pitest.mutationtest.engine.gregor.mutators.ReturnValsMutator,isHighHonors,103,KILLED,transcriptAnalyzer.TestTranscript._
Transcript.java,transcriptAnalyzer.Transcript,org.pitest.mutationtest.engine.gregor.mutators.ConstructorCallMutator,printTranscript,66,KILLED,transcriptAnalyzer.TestTranscript._
Transcript.java,transcriptAnalyzer.Transcript,org.pitest.mutationtest.engine.gregor.mutators.ConstructorCallMutator,printTranscript,68,KILLED,transcriptAnalyzer.TestTranscript._
Transcript.java,transcriptAnalyzer.Transcript,org.pitest.mutationtest.engine.gregor.mutators.ConstructorCallMutator,printTranscript,70,KILLED,transcriptAnalyzer.TestTranscript._
Transcript.java,transcriptAnalyzer.Transcript,org.pitest.mutationtest.engine.gregor.mutators.ConstructorCallMutator,printTranscript,74,KILLED,transcriptAnalyzer.TestTranscript._
Transcript.java,transcriptAnalyzer.Transcript,org.pitest.mutationtest.engine.gregor.mutators.NegateConditionalsMutator,printTranscript,67,SURVIVED,none
Transcript.java,transcriptAnalyzer.Transcript,org.pitest.mutationtest.engine.gregor.mutators.NegateConditionalsMutator,printTranscript,64,SURVIVED,none
Transcript.java,transcriptAnalyzer.Transcript,org.pitest.mutationtest.engine.gregor.mutators.NonVoidMethodCallMutator,printTranscript,64,KILLED,transcriptAnalyzer.TestTranscript._
Transcript.java,transcriptAnalyzer.Transcript,org.pitest.mutationtest.engine.gregor.mutators.NonVoidMethodCallMutator,printTranscript,64,KILLED,transcriptAnalyzer.TestTranscript._
Transcript.java,transcriptAnalyzer.Transcript,org.pitest.mutationtest.engine.gregor.mutators.NonVoidMethodCallMutator,printTranscript,66,KILLED,transcriptAnalyzer.TestTranscript._
Transcript.java,transcriptAnalyzer.Transcript,org.pitest.mutationtest.engine.gregor.mutators.NonVoidMethodCallMutator,printTranscript,66,SURVIVED,none
Transcript.java,transcriptAnalyzer.Transcript,org.pitest.mutationtest.engine.gregor.mutators.NonVoidMethodCallMutator,printTranscript,66,KILLED,transcriptAnalyzer.TestTranscript._
Transcript.java,transcriptAnalyzer.Transcript,org.pitest.mutationtest.engine.gregor.mutators.NonVoidMethodCallMutator,printTranscript,66,KILLED,transcriptAnalyzer.TestTranscript._
Transcript.java,transcriptAnalyzer.Transcript,org.pitest.mutationtest.engine.gregor.mutators.NonVoidMethodCallMutator,printTranscript,66,SURVIVED,none
Transcript.java,transcriptAnalyzer.Transcript,org.pitest.mutationtest.engine.gregor.mutators.NonVoidMethodCallMutator,printTranscript,66,KILLED,transcriptAnalyzer.TestTranscript._
Transcript.java,transcriptAnalyzer.Transcript,org.pitest.mutationtest.engine.gregor.mutators.NonVoidMethodCallMutator,printTranscript,66,SURVIVED,none
Transcript.java,transcriptAnalyzer.Transcript,org.pitest.mutationtest.engine.gregor.mutators.NonVoidMethodCallMutator,printTranscript,67,KILLED,transcriptAnalyzer.TestTranscript._
Transcript.java,transcriptAnalyzer.Transcript,org.pitest.mutationtest.engine.gregor.mutators.NonVoidMethodCallMutator,printTranscript,67,KILLED,transcriptAnalyzer.TestTranscript._
Transcript.java,transcriptAnalyzer.Transcript,org.pitest.mutationtest.engine.gregor.mutators.NonVoidMethodCallMutator,printTranscript,67,KILLED,transcriptAnalyzer.TestTranscript._
Transcript.java,transcriptAnalyzer.Transcript,org.pitest.mutationtest.engine.gregor.mutators.NonVoidMethodCallMutator,printTranscript,68,SURVIVED,none
Transcript.java,transcriptAnalyzer.Transcript,org.pitest.mutationtest.engine.gregor.mutators.NonVoidMethodCallMutator,printTranscript,68,KILLED,transcriptAnalyzer.TestTranscript._
Transcript.java,transcriptAnalyzer.Transcript,org.pitest.mutationtest.engine.gregor.mutators.NonVoidMethodCallMutator,printTranscript,68,KILLED,transcriptAnalyzer.TestTranscript._
Transcript.java,transcriptAnalyzer.Transcript,org.pitest.mutationtest.engine.gregor.mutators.NonVoidMethodCallMutator,printTranscript,68,SURVIVED,none
Transcript.java,transcriptAnalyzer.Transcript,org.pitest.mutationtest.engine.gregor.mutators.NonVoidMethodCallMutator,printTranscript,68,KILLED,transcriptAnalyzer.TestTranscript._
Transcript.java,transcriptAnalyzer.Transcript,org.pitest.mutationtest.engine.gregor.mutators.NonVoidMethodCallMutator,printTranscript,68,KILLED,transcriptAnalyzer.TestTranscript._
Transcript.java,transcriptAnalyzer.Transcript,org.pitest.mutationtest.engine.gregor.mutators.NonVoidMethodCallMutator,printTranscript,68,SURVIVED,none
Transcript.java,transcriptAnalyzer.Transcript,org.pitest.mutationtest.engine.gregor.mutators.NonVoidMethodCallMutator,printTranscript,68,KILLED,transcriptAnalyzer.TestTranscript._
Transcript.java,transcriptAnalyzer.Transcript,org.pitest.mutationtest.engine.gregor.mutators.NonVoidMethodCallMutator,printTranscript,68,SURVIVED,none
Transcript.java,transcriptAnalyzer.Transcript,org.pitest.mutationtest.engine.gregor.mutators.NonVoidMethodCallMutator,printTranscript,67,SURVIVED,none
Transcript.java,transcriptAnalyzer.Transcript,org.pitest.mutationtest.engine.gregor.mutators.NonVoidMethodCallMutator,printTranscript,70,SURVIVED,none
Transcript.java,transcriptAnalyzer.Transcript,org.pitest.mutationtest.engine.gregor.mutators.NonVoidMethodCallMutator,printTranscript,70,KILLED,transcriptAnalyzer.TestTranscript._
Transcript.java,transcriptAnalyzer.Transcript,org.pitest.mutationtest.engine.gregor.mutators.NonVoidMethodCallMutator,printTranscript,70,KILLED,transcriptAnalyzer.TestTranscript._
Transcript.java,transcriptAnalyzer.Transcript,org.pitest.mutationtest.engine.gregor.mutators.NonVoidMethodCallMutator,printTranscript,70,SURVIVED,none
Transcript.java,transcriptAnalyzer.Transcript,org.pitest.mutationtest.engine.gregor.mutators.NonVoidMethodCallMutator,printTranscript,70,KILLED,transcriptAnalyzer.TestTranscript._
Transcript.java,transcriptAnalyzer.Transcript,org.pitest.mutationtest.engine.gregor.mutators.NonVoidMethodCallMutator,printTranscript,71,KILLED,transcriptAnalyzer.TestTranscript._
Transcript.java,transcriptAnalyzer.Transcript,org.pitest.mutationtest.engine.gregor.mutators.NonVoidMethodCallMutator,printTranscript,71,SURVIVED,none
Transcript.java,transcriptAnalyzer.Transcript,org.pitest.mutationtest.engine.gregor.mutators.NonVoidMethodCallMutator,printTranscript,71,KILLED,transcriptAnalyzer.TestTranscript._
Transcript.java,transcriptAnalyzer.Transcript,org.pitest.mutationtest.engine.gregor.mutators.NonVoidMethodCallMutator,printTranscript,71,KILLED,transcriptAnalyzer.TestTranscript._
Transcript.java,transcriptAnalyzer.Transcript,org.pitest.mutationtest.engine.gregor.mutators.NonVoidMethodCallMutator,printTranscript,71,SURVIVED,none
Transcript.java,transcriptAnalyzer.Transcript,org.pitest.mutationtest.engine.gregor.mutators.NonVoidMethodCallMutator,printTranscript,71,KILLED,transcriptAnalyzer.TestTranscript._
Transcript.java,transcriptAnalyzer.Transcript,org.pitest.mutationtest.engine.gregor.mutators.NonVoidMethodCallMutator,printTranscript,71,SURVIVED,none
Transcript.java,transcriptAnalyzer.Transcript,org.pitest.mutationtest.engine.gregor.mutators.NonVoidMethodCallMutator,printTranscript,64,SURVIVED,none
Transcript.java,transcriptAnalyzer.Transcript,org.pitest.mutationtest.engine.gregor.mutators.NonVoidMethodCallMutator,printTranscript,74,SURVIVED,none
Transcript.java,transcriptAnalyzer.Transcript,org.pitest.mutationtest.engine.gregor.mutators.NonVoidMethodCallMutator,printTranscript,74,KILLED,transcriptAnalyzer.TestTranscript._
Transcript.java,transcriptAnalyzer.Transcript,org.pitest.mutationtest.engine.gregor.mutators.NonVoidMethodCallMutator,printTranscript,74,KILLED,transcriptAnalyzer.TestTranscript._
Transcript.java,transcriptAnalyzer.Transcript,org.pitest.mutationtest.engine.gregor.mutators.NonVoidMethodCallMutator,printTranscript,74,SURVIVED,none
Transcript.java,transcriptAnalyzer.Transcript,org.pitest.mutationtest.engine.gregor.mutators.NonVoidMethodCallMutator,printTranscript,74,KILLED,transcriptAnalyzer.TestTranscript._
Transcript.java,transcriptAnalyzer.Transcript,org.pitest.mutationtest.engine.gregor.mutators.NonVoidMethodCallMutator,printTranscript,74,KILLED,transcriptAnalyzer.TestTranscript._
Transcript.java,transcriptAnalyzer.Transcript,org.pitest.mutationtest.engine.gregor.mutators.NonVoidMethodCallMutator,printTranscript,75,SURVIVED,none
Transcript.java,transcriptAnalyzer.Transcript,org.pitest.mutationtest.engine.gregor.mutators.NonVoidMethodCallMutator,printTranscript,75,KILLED,transcriptAnalyzer.TestTranscript._
Transcript.java,transcriptAnalyzer.Transcript,org.pitest.mutationtest.engine.gregor.mutators.NonVoidMethodCallMutator,printTranscript,75,SURVIVED,none
Transcript.java,transcriptAnalyzer.Transcript,org.pitest.mutationtest.engine.gregor.mutators.RemoveConditionalMutator_EQUAL_ELSE,printTranscript,67,KILLED,transcriptAnalyzer.TestTranscript._
Transcript.java,transcriptAnalyzer.Transcript,org.pitest.mutationtest.engine.gregor.mutators.RemoveConditionalMutator_EQUAL_ELSE,printTranscript,64,KILLED,transcriptAnalyzer.TestTranscript._
Transcript.java,transcriptAnalyzer.Transcript,org.pitest.mutationtest.engine.gregor.mutators.RemoveConditionalMutator_EQUAL_IF,printTranscript,67,SURVIVED,none
Transcript.java,transcriptAnalyzer.Transcript,org.pitest.mutationtest.engine.gregor.mutators.RemoveConditionalMutator_EQUAL_IF,printTranscript,64,SURVIVED,none
Transcript.java,transcriptAnalyzer.Transcript,org.pitest.mutationtest.engine.gregor.mutators.VoidMethodCallMutator,printTranscript,63,SURVIVED,none
Transcript.java,transcriptAnalyzer.Transcript,org.pitest.mutationtest.engine.gregor.mutators.VoidMethodCallMutator,printTranscript,65,SURVIVED,none
Transcript.java,transcriptAnalyzer.Transcript,org.pitest.mutationtest.engine.gregor.mutators.VoidMethodCallMutator,printTranscript,66,SURVIVED,none
Transcript.java,transcriptAnalyzer.Transcript,org.pitest.mutationtest.engine.gregor.mutators.VoidMethodCallMutator,printTranscript,68,SURVIVED,none
Transcript.java,transcriptAnalyzer.Transcript,org.pitest.mutationtest.engine.gregor.mutators.VoidMethodCallMutator,printTranscript,70,SURVIVED,none
Transcript.java,transcriptAnalyzer.Transcript,org.pitest.mutationtest.engine.gregor.mutators.VoidMethodCallMutator,printTranscript,72,SURVIVED,none
Transcript.java,transcriptAnalyzer.Transcript,org.pitest.mutationtest.engine.gregor.mutators.VoidMethodCallMutator,printTranscript,74,SURVIVED,none
Term.java,transcriptAnalyzer.Term,org.pitest.mutationtest.engine.gregor.mutators.ConditionalsBoundaryMutator,<init>,24,KILLED,transcriptAnalyzer.TestTerm._
Term.java,transcriptAnalyzer.Term,org.pitest.mutationtest.engine.gregor.mutators.ConstructorCallMutator,<init>,25,KILLED,transcriptAnalyzer.TestTerm._
Term.java,transcriptAnalyzer.Term,org.pitest.mutationtest.engine.gregor.mutators.ConstructorCallMutator,<init>,27,KILLED,transcriptAnalyzer.TestTerm._
Term.java,transcriptAnalyzer.Term,org.pitest.mutationtest.engine.gregor.mutators.InlineConstantMutator,<init>,24,KILLED,transcriptAnalyzer.TestTerm._
Term.java,transcriptAnalyzer.Term,org.pitest.mutationtest.engine.gregor.mutators.NegateConditionalsMutator,<init>,24,KILLED,transcriptAnalyzer.TestTerm._
Term.java,transcriptAnalyzer.Term,org.pitest.mutationtest.engine.gregor.mutators.RemoveConditionalMutator_ORDER_ELSE,<init>,24,KILLED,transcriptAnalyzer.TestTerm._
Term.java,transcriptAnalyzer.Term,org.pitest.mutationtest.engine.gregor.mutators.RemoveConditionalMutator_ORDER_IF,<init>,24,KILLED,transcriptAnalyzer.TestTerm._
Term.java,transcriptAnalyzer.Term,org.pitest.mutationtest.engine.gregor.mutators.NonVoidMethodCallMutator,addCourse,68,KILLED,transcriptAnalyzer.TestTerm._
Term.java,transcriptAnalyzer.Term,org.pitest.mutationtest.engine.gregor.mutators.ReturnValsMutator,addCourse,68,KILLED,transcriptAnalyzer.TestTerm._
Term.java,transcriptAnalyzer.Term,org.pitest.mutationtest.engine.gregor.mutators.ConditionalsBoundaryMutator,addCourses,77,KILLED,transcriptAnalyzer.TestTerm._
Term.java,transcriptAnalyzer.Term,org.pitest.mutationtest.engine.gregor.mutators.IncrementsMutator,addCourses,77,KILLED,transcriptAnalyzer.TestTerm._
Term.java,transcriptAnalyzer.Term,org.pitest.mutationtest.engine.gregor.mutators.InlineConstantMutator,addCourses,77,KILLED,transcriptAnalyzer.TestTerm._
Term.java,transcriptAnalyzer.Term,org.pitest.mutationtest.engine.gregor.mutators.NegateConditionalsMutator,addCourses,77,KILLED,transcriptAnalyzer.TestTerm._
Term.java,transcriptAnalyzer.Term,org.pitest.mutationtest.engine.gregor.mutators.NonVoidMethodCallMutator,addCourses,78,KILLED,transcriptAnalyzer.TestTerm._
Term.java,transcriptAnalyzer.Term,org.pitest.mutationtest.engine.gregor.mutators.RemoveConditionalMutator_ORDER_ELSE,addCourses,77,KILLED,transcriptAnalyzer.TestTerm._
Term.java,transcriptAnalyzer.Term,org.pitest.mutationtest.engine.gregor.mutators.RemoveConditionalMutator_ORDER_IF,addCourses,77,KILLED,transcriptAnalyzer.TestTerm._
Term.java,transcriptAnalyzer.Term,org.pitest.mutationtest.engine.gregor.mutators.InlineConstantMutator,calculateTermGPA,88,KILLED,transcriptAnalyzer.TestTerm._
Term.java,transcriptAnalyzer.Term,org.pitest.mutationtest.engine.gregor.mutators.InlineConstantMutator,calculateTermGPA,89,KILLED,transcriptAnalyzer.TestTerm._
Term.java,transcriptAnalyzer.Term,org.pitest.mutationtest.engine.gregor.mutators.MathMutator,calculateTermGPA,92,KILLED,transcriptAnalyzer.TestTerm._
Term.java,transcriptAnalyzer.Term,org.pitest.mutationtest.engine.gregor.mutators.MathMutator,calculateTermGPA,93,KILLED,transcriptAnalyzer.TestTerm._
Term.java,transcriptAnalyzer.Term,org.pitest.mutationtest.engine.gregor.mutators.MathMutator,calculateTermGPA,95,KILLED,transcriptAnalyzer.TestTerm._
Term.java,transcriptAnalyzer.Term,org.pitest.mutationtest.engine.gregor.mutators.NegateConditionalsMutator,calculateTermGPA,91,KILLED,transcriptAnalyzer.TestTerm._
Term.java,transcriptAnalyzer.Term,org.pitest.mutationtest.engine.gregor.mutators.NonVoidMethodCallMutator,calculateTermGPA,91,KILLED,transcriptAnalyzer.TestTerm._
Term.java,transcriptAnalyzer.Term,org.pitest.mutationtest.engine.gregor.mutators.NonVoidMethodCallMutator,calculateTermGPA,91,KILLED,transcriptAnalyzer.TestTerm._
Term.java,transcriptAnalyzer.Term,org.pitest.mutationtest.engine.gregor.mutators.NonVoidMethodCallMutator,calculateTermGPA,92,KILLED,transcriptAnalyzer.TestTerm._
Term.java,transcriptAnalyzer.Term,org.pitest.mutationtest.engine.gregor.mutators.NonVoidMethodCallMutator,calculateTermGPA,93,KILLED,transcriptAnalyzer.TestTerm._
Term.java,transcriptAnalyzer.Term,org.pitest.mutationtest.engine.gregor.mutators.NonVoidMethodCallMutator,calculateTermGPA,91,KILLED,transcriptAnalyzer.TestTerm._
Term.java,transcriptAnalyzer.Term,org.pitest.mutationtest.engine.gregor.mutators.RemoveConditionalMutator_EQUAL_ELSE,calculateTermGPA,91,KILLED,transcriptAnalyzer.TestTerm._
Term.java,transcriptAnalyzer.Term,org.pitest.mutationtest.engine.gregor.mutators.RemoveConditionalMutator_EQUAL_IF,calculateTermGPA,91,KILLED,transcriptAnalyzer.TestTerm._
Term.java,transcriptAnalyzer.Term,org.pitest.mutationtest.engine.gregor.mutators.ReturnValsMutator,calculateTermGPA,95,KILLED,transcriptAnalyzer.TestTerm._
Term.java,transcriptAnalyzer.Term,org.pitest.mutationtest.engine.gregor.mutators.ConditionalsBoundaryMutator,compareTo,139,SURVIVED,none
Term.java,transcriptAnalyzer.Term,org.pitest.mutationtest.engine.gregor.mutators.InlineConstantMutator,compareTo,132,KILLED,transcriptAnalyzer.TestTerm._
Term.java,transcriptAnalyzer.Term,org.pitest.mutationtest.engine.gregor.mutators.InlineConstantMutator,compareTo,134,KILLED,transcriptAnalyzer.TestTerm._
Term.java,transcriptAnalyzer.Term,org.pitest.mutationtest.engine.gregor.mutators.InlineConstantMutator,compareTo,134,KILLED,transcriptAnalyzer.TestTerm._
Term.java,transcriptAnalyzer.Term,org.pitest.mutationtest.engine.gregor.mutators.InlineConstantMutator,compareTo,138,KILLED,transcriptAnalyzer.TestTerm._
Term.java,transcriptAnalyzer.Term,org.pitest.mutationtest.engine.gregor.mutators.InlineConstantMutator,compareTo,140,KILLED,transcriptAnalyzer.TestTerm._
Term.java,transcriptAnalyzer.Term,org.pitest.mutationtest.engine.gregor.mutators.InlineConstantMutator,compareTo,142,KILLED,transcriptAnalyzer.TestTerm._
Term.java,transcriptAnalyzer.Term,org.pitest.mutationtest.engine.gregor.mutators.MathMutator,compareTo,134,KILLED,transcriptAnalyzer.TestTerm._
Term.java,transcriptAnalyzer.Term,org.pitest.mutationtest.engine.gregor.mutators.MathMutator,compareTo,134,KILLED,transcriptAnalyzer.TestTerm._
Term.java,transcriptAnalyzer.Term,org.pitest.mutationtest.engine.gregor.mutators.MathMutator,compareTo,134,KILLED,transcriptAnalyzer.TestTerm._
Term.java,transcriptAnalyzer.Term,org.pitest.mutationtest.engine.gregor.mutators.MathMutator,compareTo,134,KILLED,transcriptAnalyzer.TestTerm._
Term.java,transcriptAnalyzer.Term,org.pitest.mutationtest.engine.gregor.mutators.MathMutator,compareTo,134,KILLED,transcriptAnalyzer.TestTerm._
Term.java,transcriptAnalyzer.Term,org.pitest.mutationtest.engine.gregor.mutators.NegateConditionalsMutator,compareTo,131,KILLED,transcriptAnalyzer.TestTerm._
Term.java,transcriptAnalyzer.Term,org.pitest.mutationtest.engine.gregor.mutators.NegateConditionalsMutator,compareTo,136,KILLED,transcriptAnalyzer.TestTerm._
Term.java,transcriptAnalyzer.Term,org.pitest.mutationtest.engine.gregor.mutators.NegateConditionalsMutator,compareTo,139,KILLED,transcriptAnalyzer.TestTerm._
Term.java,transcriptAnalyzer.Term,org.pitest.mutationtest.engine.gregor.mutators.NonVoidMethodCallMutator,compareTo,131,SURVIVED,none
Term.java,transcriptAnalyzer.Term,org.pitest.mutationtest.engine.gregor.mutators.NonVoidMethodCallMutator,compareTo,134,KILLED,transcriptAnalyzer.TestTerm._
Term.java,transcriptAnalyzer.Term,org.pitest.mutationtest.engine.gregor.mutators.NonVoidMethodCallMutator,compareTo,134,KILLED,transcriptAnalyzer.TestTerm._
Term.java,transcriptAnalyzer.Term,org.pitest.mutationtest.engine.gregor.mutators.RemoveConditionalMutator_EQUAL_ELSE,compareTo,131,SURVIVED,none
Term.java,transcriptAnalyzer.Term,org.pitest.mutationtest.engine.gregor.mutators.RemoveConditionalMutator_EQUAL_ELSE,compareTo,136,KILLED,transcriptAnalyzer.TestTerm._
Term.java,transcriptAnalyzer.Term,org.pitest.mutationtest.engine.gregor.mutators.RemoveConditionalMutator_EQUAL_IF,compareTo,131,KILLED,transcriptAnalyzer.TestTerm._
Term.java,transcriptAnalyzer.Term,org.pitest.mutationtest.engine.gregor.mutators.RemoveConditionalMutator_EQUAL_IF,compareTo,136,KILLED,transcriptAnalyzer.TestTerm._
Term.java,transcriptAnalyzer.Term,org.pitest.mutationtest.engine.gregor.mutators.RemoveConditionalMutator_ORDER_ELSE,compareTo,139,KILLED,transcriptAnalyzer.TestTerm._
Term.java,transcriptAnalyzer.Term,org.pitest.mutationtest.engine.gregor.mutators.RemoveConditionalMutator_ORDER_IF,compareTo,139,KILLED,transcriptAnalyzer.TestTerm._
Term.java,transcriptAnalyzer.Term,org.pitest.mutationtest.engine.gregor.mutators.ReturnValsMutator,compareTo,132,KILLED,transcriptAnalyzer.TestTerm._
Term.java,transcriptAnalyzer.Term,org.pitest.mutationtest.engine.gregor.mutators.ReturnValsMutator,compareTo,138,KILLED,transcriptAnalyzer.TestTerm._
Term.java,transcriptAnalyzer.Term,org.pitest.mutationtest.engine.gregor.mutators.ReturnValsMutator,compareTo,140,KILLED,transcriptAnalyzer.TestTerm._
Term.java,transcriptAnalyzer.Term,org.pitest.mutationtest.engine.gregor.mutators.ReturnValsMutator,compareTo,142,KILLED,transcriptAnalyzer.TestTerm._
Term.java,transcriptAnalyzer.Term,org.pitest.mutationtest.engine.gregor.mutators.ReturnValsMutator,getAcademicTerm,38,KILLED,transcriptAnalyzer.TestTerm._
Term.java,transcriptAnalyzer.Term,org.pitest.mutationtest.engine.gregor.mutators.ReturnValsMutator,getCourses,56,KILLED,transcriptAnalyzer.TestTerm._
Term.java,transcriptAnalyzer.Term,org.pitest.mutationtest.engine.gregor.mutators.ReturnValsMutator,getYear,47,KILLED,transcriptAnalyzer.TestTerm._
Term.java,transcriptAnalyzer.Term,org.pitest.mutationtest.engine.gregor.mutators.ConditionalsBoundaryMutator,inGoodStanding,104,SURVIVED,none
Term.java,transcriptAnalyzer.Term,org.pitest.mutationtest.engine.gregor.mutators.InlineConstantMutator,inGoodStanding,104,KILLED,transcriptAnalyzer.TestTerm._
Term.java,transcriptAnalyzer.Term,org.pitest.mutationtest.engine.gregor.mutators.InlineConstantMutator,inGoodStanding,104,KILLED,transcriptAnalyzer.TestTerm._
Term.java,transcriptAnalyzer.Term,org.pitest.mutationtest.engine.gregor.mutators.InlineConstantMutator,inGoodStanding,104,KILLED,transcriptAnalyzer.TestTerm._
Term.java,transcriptAnalyzer.Term,org.pitest.mutationtest.engine.gregor.mutators.NegateConditionalsMutator,inGoodStanding,104,KILLED,transcriptAnalyzer.TestTerm._
Term.java,transcriptAnalyzer.Term,org.pitest.mutationtest.engine.gregor.mutators.NonVoidMethodCallMutator,inGoodStanding,104,KILLED,transcriptAnalyzer.TestTerm._
Term.java,transcriptAnalyzer.Term,org.pitest.mutationtest.engine.gregor.mutators.RemoveConditionalMutator_ORDER_ELSE,inGoodStanding,104,KILLED,transcriptAnalyzer.TestTerm._
Term.java,transcriptAnalyzer.Term,org.pitest.mutationtest.engine.gregor.mutators.RemoveConditionalMutator_ORDER_IF,inGoodStanding,104,KILLED,transcriptAnalyzer.TestTerm._
Term.java,transcriptAnalyzer.Term,org.pitest.mutationtest.engine.gregor.mutators.ReturnValsMutator,inGoodStanding,104,KILLED,transcriptAnalyzer.TestTerm._
Term.java,transcriptAnalyzer.Term,org.pitest.mutationtest.engine.gregor.mutators.ReturnValsMutator,inGoodStanding,104,KILLED,transcriptAnalyzer.TestTerm._
Term.java,transcriptAnalyzer.Term,org.pitest.mutationtest.engine.gregor.mutators.ConditionalsBoundaryMutator,isOnHonorsList,125,KILLED,transcriptAnalyzer.TestTerm._
Term.java,transcriptAnalyzer.Term,org.pitest.mutationtest.engine.gregor.mutators.InlineConstantMutator,isOnHonorsList,125,KILLED,transcriptAnalyzer.TestTerm._
Term.java,transcriptAnalyzer.Term,org.pitest.mutationtest.engine.gregor.mutators.InlineConstantMutator,isOnHonorsList,125,KILLED,transcriptAnalyzer.TestTerm._
Term.java,transcriptAnalyzer.Term,org.pitest.mutationtest.engine.gregor.mutators.InlineConstantMutator,isOnHonorsList,125,KILLED,transcriptAnalyzer.TestTerm._
Term.java,transcriptAnalyzer.Term,org.pitest.mutationtest.engine.gregor.mutators.NegateConditionalsMutator,isOnHonorsList,125,KILLED,transcriptAnalyzer.TestTerm._
Term.java,transcriptAnalyzer.Term,org.pitest.mutationtest.engine.gregor.mutators.NonVoidMethodCallMutator,isOnHonorsList,125,KILLED,transcriptAnalyzer.TestTerm._
Term.java,transcriptAnalyzer.Term,org.pitest.mutationtest.engine.gregor.mutators.RemoveConditionalMutator_ORDER_ELSE,isOnHonorsList,125,KILLED,transcriptAnalyzer.TestTerm._
Term.java,transcriptAnalyzer.Term,org.pitest.mutationtest.engine.gregor.mutators.RemoveConditionalMutator_ORDER_IF,isOnHonorsList,125,KILLED,transcriptAnalyzer.TestTerm._
Term.java,transcriptAnalyzer.Term,org.pitest.mutationtest.engine.gregor.mutators.ReturnValsMutator,isOnHonorsList,125,KILLED,transcriptAnalyzer.TestTerm._
Term.java,transcriptAnalyzer.Term,org.pitest.mutationtest.engine.gregor.mutators.ReturnValsMutator,isOnHonorsList,125,KILLED,transcriptAnalyzer.TestTerm._
Term.java,transcriptAnalyzer.Term,org.pitest.mutationtest.engine.gregor.mutators.ConditionalsBoundaryMutator,isOnProbation,115,SURVIVED,none
Term.java,transcriptAnalyzer.Term,org.pitest.mutationtest.engine.gregor.mutators.InlineConstantMutator,isOnProbation,115,KILLED,transcriptAnalyzer.TestTerm._
Term.java,transcriptAnalyzer.Term,org.pitest.mutationtest.engine.gregor.mutators.InlineConstantMutator,isOnProbation,115,KILLED,transcriptAnalyzer.TestTerm._
Term.java,transcriptAnalyzer.Term,org.pitest.mutationtest.engine.gregor.mutators.InlineConstantMutator,isOnProbation,115,KILLED,transcriptAnalyzer.TestTerm._
Term.java,transcriptAnalyzer.Term,org.pitest.mutationtest.engine.gregor.mutators.NegateConditionalsMutator,isOnProbation,115,KILLED,transcriptAnalyzer.TestTerm._
Term.java,transcriptAnalyzer.Term,org.pitest.mutationtest.engine.gregor.mutators.NonVoidMethodCallMutator,isOnProbation,115,KILLED,transcriptAnalyzer.TestTerm._
Term.java,transcriptAnalyzer.Term,org.pitest.mutationtest.engine.gregor.mutators.RemoveConditionalMutator_ORDER_ELSE,isOnProbation,115,KILLED,transcriptAnalyzer.TestTerm._
Term.java,transcriptAnalyzer.Term,org.pitest.mutationtest.engine.gregor.mutators.RemoveConditionalMutator_ORDER_IF,isOnProbation,115,KILLED,transcriptAnalyzer.TestTerm._
Term.java,transcriptAnalyzer.Term,org.pitest.mutationtest.engine.gregor.mutators.ReturnValsMutator,isOnProbation,115,KILLED,transcriptAnalyzer.TestTerm._
Term.java,transcriptAnalyzer.Term,org.pitest.mutationtest.engine.gregor.mutators.ReturnValsMutator,isOnProbation,115,KILLED,transcriptAnalyzer.TestTerm._
CompletedCourse.java,transcriptAnalyzer.CompletedCourse,org.pitest.mutationtest.engine.gregor.mutators.ConditionalsBoundaryMutator,<init>,44,KILLED,transcriptAnalyzer.TestCompletedCourse._
CompletedCourse.java,transcriptAnalyzer.CompletedCourse,org.pitest.mutationtest.engine.gregor.mutators.ConditionalsBoundaryMutator,<init>,48,KILLED,transcriptAnalyzer.TestCompletedCourse._
CompletedCourse.java,transcriptAnalyzer.CompletedCourse,org.pitest.mutationtest.engine.gregor.mutators.ConstructorCallMutator,<init>,45,KILLED,transcriptAnalyzer.TestCompletedCourse._
CompletedCourse.java,transcriptAnalyzer.CompletedCourse,org.pitest.mutationtest.engine.gregor.mutators.ConstructorCallMutator,<init>,49,KILLED,transcriptAnalyzer.TestCompletedCourse._
CompletedCourse.java,transcriptAnalyzer.CompletedCourse,org.pitest.mutationtest.engine.gregor.mutators.InlineConstantMutator,<init>,44,KILLED,transcriptAnalyzer.TestCompletedCourse._
CompletedCourse.java,transcriptAnalyzer.CompletedCourse,org.pitest.mutationtest.engine.gregor.mutators.NegateConditionalsMutator,<init>,44,KILLED,transcriptAnalyzer.TestCompletedCourse._
CompletedCourse.java,transcriptAnalyzer.CompletedCourse,org.pitest.mutationtest.engine.gregor.mutators.NegateConditionalsMutator,<init>,48,KILLED,transcriptAnalyzer.TestCompletedCourse._
CompletedCourse.java,transcriptAnalyzer.CompletedCourse,org.pitest.mutationtest.engine.gregor.mutators.NonVoidMethodCallMutator,<init>,44,KILLED,transcriptAnalyzer.TestCompletedCourse._
CompletedCourse.java,transcriptAnalyzer.CompletedCourse,org.pitest.mutationtest.engine.gregor.mutators.RemoveConditionalMutator_ORDER_ELSE,<init>,44,KILLED,transcriptAnalyzer.TestCompletedCourse._
CompletedCourse.java,transcriptAnalyzer.CompletedCourse,org.pitest.mutationtest.engine.gregor.mutators.RemoveConditionalMutator_ORDER_ELSE,<init>,48,KILLED,transcriptAnalyzer.TestCompletedCourse._
CompletedCourse.java,transcriptAnalyzer.CompletedCourse,org.pitest.mutationtest.engine.gregor.mutators.RemoveConditionalMutator_ORDER_IF,<init>,44,KILLED,transcriptAnalyzer.TestCompletedCourse._
CompletedCourse.java,transcriptAnalyzer.CompletedCourse,org.pitest.mutationtest.engine.gregor.mutators.RemoveConditionalMutator_ORDER_IF,<init>,48,KILLED,transcriptAnalyzer.TestCompletedCourse._
CompletedCourse.java,transcriptAnalyzer.CompletedCourse,org.pitest.mutationtest.engine.gregor.mutators.InlineConstantMutator,equals,98,KILLED,transcriptAnalyzer.TestCompletedCourse._
CompletedCourse.java,transcriptAnalyzer.CompletedCourse,org.pitest.mutationtest.engine.gregor.mutators.InlineConstantMutator,equals,106,KILLED,transcriptAnalyzer.TestCompletedCourse._
CompletedCourse.java,transcriptAnalyzer.CompletedCourse,org.pitest.mutationtest.engine.gregor.mutators.InlineConstantMutator,equals,112,KILLED,transcriptAnalyzer.TestCompletedCourse._
CompletedCourse.java,transcriptAnalyzer.CompletedCourse,org.pitest.mutationtest.engine.gregor.mutators.InlineConstantMutator,equals,114,KILLED,transcriptAnalyzer.TestCompletedCourse._
CompletedCourse.java,transcriptAnalyzer.CompletedCourse,org.pitest.mutationtest.engine.gregor.mutators.NegateConditionalsMutator,equals,97,KILLED,transcriptAnalyzer.TestCompletedCourse._
CompletedCourse.java,transcriptAnalyzer.CompletedCourse,org.pitest.mutationtest.engine.gregor.mutators.NegateConditionalsMutator,equals,105,KILLED,transcriptAnalyzer.TestCompletedCourse._
CompletedCourse.java,transcriptAnalyzer.CompletedCourse,org.pitest.mutationtest.engine.gregor.mutators.NegateConditionalsMutator,equals,110,KILLED,transcriptAnalyzer.TestCompletedCourse._
CompletedCourse.java,transcriptAnalyzer.CompletedCourse,org.pitest.mutationtest.engine.gregor.mutators.NegateConditionalsMutator,equals,110,KILLED,transcriptAnalyzer.TestCompletedCourse._
CompletedCourse.java,transcriptAnalyzer.CompletedCourse,org.pitest.mutationtest.engine.gregor.mutators.NegateConditionalsMutator,equals,111,KILLED,transcriptAnalyzer.TestCompletedCourse._
CompletedCourse.java,transcriptAnalyzer.CompletedCourse,org.pitest.mutationtest.engine.gregor.mutators.NonVoidMethodCallMutator,equals,110,KILLED,transcriptAnalyzer.TestCompletedCourse._
CompletedCourse.java,transcriptAnalyzer.CompletedCourse,org.pitest.mutationtest.engine.gregor.mutators.RemoveConditionalMutator_EQUAL_ELSE,equals,97,SURVIVED,none
CompletedCourse.java,transcriptAnalyzer.CompletedCourse,org.pitest.mutationtest.engine.gregor.mutators.RemoveConditionalMutator_EQUAL_ELSE,equals,105,KILLED,transcriptAnalyzer.TestCompletedCourse._
CompletedCourse.java,transcriptAnalyzer.CompletedCourse,org.pitest.mutationtest.engine.gregor.mutators.RemoveConditionalMutator_EQUAL_ELSE,equals,110,KILLED,transcriptAnalyzer.TestCompletedCourse._
CompletedCourse.java,transcriptAnalyzer.CompletedCourse,org.pitest.mutationtest.engine.gregor.mutators.RemoveConditionalMutator_EQUAL_ELSE,equals,110,KILLED,transcriptAnalyzer.TestCompletedCourse._
CompletedCourse.java,transcriptAnalyzer.CompletedCourse,org.pitest.mutationtest.engine.gregor.mutators.RemoveConditionalMutator_EQUAL_ELSE,equals,111,KILLED,transcriptAnalyzer.TestCompletedCourse._
CompletedCourse.java,transcriptAnalyzer.CompletedCourse,org.pitest.mutationtest.engine.gregor.mutators.RemoveConditionalMutator_EQUAL_IF,equals,97,KILLED,transcriptAnalyzer.TestCompletedCourse._
CompletedCourse.java,transcriptAnalyzer.CompletedCourse,org.pitest.mutationtest.engine.gregor.mutators.RemoveConditionalMutator_EQUAL_IF,equals,105,KILLED,transcriptAnalyzer.TestCompletedCourse._
CompletedCourse.java,transcriptAnalyzer.CompletedCourse,org.pitest.mutationtest.engine.gregor.mutators.RemoveConditionalMutator_EQUAL_IF,equals,110,SURVIVED,none
CompletedCourse.java,transcriptAnalyzer.CompletedCourse,org.pitest.mutationtest.engine.gregor.mutators.RemoveConditionalMutator_EQUAL_IF,equals,110,KILLED,transcriptAnalyzer.TestCompletedCourse._
CompletedCourse.java,transcriptAnalyzer.CompletedCourse,org.pitest.mutationtest.engine.gregor.mutators.RemoveConditionalMutator_EQUAL_IF,equals,111,SURVIVED,none
CompletedCourse.java,transcriptAnalyzer.CompletedCourse,org.pitest.mutationtest.engine.gregor.mutators.ReturnValsMutator,equals,98,KILLED,transcriptAnalyzer.TestCompletedCourse._
CompletedCourse.java,transcriptAnalyzer.CompletedCourse,org.pitest.mutationtest.engine.gregor.mutators.ReturnValsMutator,equals,106,KILLED,transcriptAnalyzer.TestCompletedCourse._
CompletedCourse.java,transcriptAnalyzer.CompletedCourse,org.pitest.mutationtest.engine.gregor.mutators.ReturnValsMutator,equals,112,KILLED,transcriptAnalyzer.TestCompletedCourse._
CompletedCourse.java,transcriptAnalyzer.CompletedCourse,org.pitest.mutationtest.engine.gregor.mutators.ReturnValsMutator,equals,114,KILLED,transcriptAnalyzer.TestCompletedCourse._
CompletedCourse.java,transcriptAnalyzer.CompletedCourse,org.pitest.mutationtest.engine.gregor.mutators.ReturnValsMutator,getCourseCredits,72,KILLED,transcriptAnalyzer.TestCompletedCourse._
CompletedCourse.java,transcriptAnalyzer.CompletedCourse,org.pitest.mutationtest.engine.gregor.mutators.ReturnValsMutator,getCourseName,63,KILLED,transcriptAnalyzer.TestCompletedCourse._
CompletedCourse.java,transcriptAnalyzer.CompletedCourse,org.pitest.mutationtest.engine.gregor.mutators.ReturnValsMutator,getLetterGrade,81,KILLED,transcriptAnalyzer.TestCompletedCourse._
CompletedCourse.java,transcriptAnalyzer.CompletedCourse,org.pitest.mutationtest.engine.gregor.mutators.MathMutator,getQualityPoints,91,KILLED,transcriptAnalyzer.TestCompletedCourse._
CompletedCourse.java,transcriptAnalyzer.CompletedCourse,org.pitest.mutationtest.engine.gregor.mutators.NonVoidMethodCallMutator,getQualityPoints,91,KILLED,transcriptAnalyzer.TestCompletedCourse._
CompletedCourse.java,transcriptAnalyzer.CompletedCourse,org.pitest.mutationtest.engine.gregor.mutators.ReturnValsMutator,getQualityPoints,91,KILLED,transcriptAnalyzer.TestCompletedCourse._
CompletedCourse.java,transcriptAnalyzer.CompletedCourse,org.pitest.mutationtest.engine.gregor.mutators.InlineConstantMutator,hashCode,121,KILLED,transcriptAnalyzer.TestCompletedCourse._
CompletedCourse.java,transcriptAnalyzer.CompletedCourse,org.pitest.mutationtest.engine.gregor.mutators.InlineConstantMutator,hashCode,121,KILLED,transcriptAnalyzer.TestCompletedCourse._
CompletedCourse.java,transcriptAnalyzer.CompletedCourse,org.pitest.mutationtest.engine.gregor.mutators.InlineConstantMutator,hashCode,121,KILLED,transcriptAnalyzer.TestCompletedCourse._
CompletedCourse.java,transcriptAnalyzer.CompletedCourse,org.pitest.mutationtest.engine.gregor.mutators.InlineConstantMutator,hashCode,121,KILLED,transcriptAnalyzer.TestCompletedCourse._
CompletedCourse.java,transcriptAnalyzer.CompletedCourse,org.pitest.mutationtest.engine.gregor.mutators.NonVoidMethodCallMutator,hashCode,121,KILLED,transcriptAnalyzer.TestCompletedCourse._
CompletedCourse.java,transcriptAnalyzer.CompletedCourse,org.pitest.mutationtest.engine.gregor.mutators.NonVoidMethodCallMutator,hashCode,121,KILLED,transcriptAnalyzer.TestCompletedCourse._
CompletedCourse.java,transcriptAnalyzer.CompletedCourse,org.pitest.mutationtest.engine.gregor.mutators.ReturnValsMutator,hashCode,121,KILLED,transcriptAnalyzer.TestCompletedCourse._
LetterGradeEnum.java,transcriptAnalyzer.LetterGradeEnum,org.pitest.mutationtest.engine.gregor.mutators.ReturnValsMutator,getQualityPoints,18,KILLED,transcriptAnalyzer.TestTerm._
AcademicQuarter.java,transcriptAnalyzer.AcademicQuarter,org.pitest.mutationtest.engine.gregor.mutators.ReturnValsMutator,getOrder,17,KILLED,transcriptAnalyzer.TestTerm._
